<?xml version="1.0" encoding="UTF-8" standalone="no"?>
<!-- Created with Inkscape (http://www.inkscape.org/) -->
<svg xmlns:dc="http://purl.org/dc/elements/1.1/" xmlns:cc="http://creativecommons.org/ns#" xmlns:rdf="http://www.w3.org/1999/02/22-rdf-syntax-ns#" xmlns:svg="http://www.w3.org/2000/svg" xmlns="http://www.w3.org/2000/svg" xmlns:xlink="http://www.w3.org/1999/xlink" xmlns:sodipodi="http://sodipodi.sourceforge.net/DTD/sodipodi-0.dtd" xmlns:inkscape="http://www.inkscape.org/namespaces/inkscape" width="125" height="152" id="svg6039" version="1.1" inkscape:version="0.48.1 r9760" sodipodi:docname="New document 7">
  <defs id="defs6041">
    <linearGradient inkscape:collect="always" xlink:href="#linearGradient5837" id="linearGradient5843" x1="796.96735" y1="559.07812" x2="846" y2="559.07812" gradientUnits="userSpaceOnUse"/>
    <linearGradient id="linearGradient5837">
      <stop style="stop-color:#87aade;stop-opacity:1;" offset="0" id="stop5839"/>
      <stop style="stop-color:#3d76ca;stop-opacity:1;" offset="1" id="stop5841"/>
    </linearGradient>
    <linearGradient inkscape:collect="always" xlink:href="#linearGradient5845" id="linearGradient5851" x1="806.09375" y1="570.95337" x2="807.61993" y2="627.95337" gradientUnits="userSpaceOnUse"/>
    <linearGradient id="linearGradient5845">
      <stop style="stop-color:#ffcc00;stop-opacity:1;" offset="0" id="stop5847"/>
      <stop style="stop-color:#f56a00;stop-opacity:1;" offset="1" id="stop5849"/>
    </linearGradient>
  </defs>
  <sodipodi:namedview id="base" pagecolor="#ffffff" bordercolor="#666666" borderopacity="1.0" inkscape:pageopacity="0.0" inkscape:pageshadow="2" inkscape:zoom="1" inkscape:cx="87.781283" inkscape:cy="87.067631" inkscape:document-units="px" inkscape:current-layer="g5876" showgrid="false" fit-margin-top="0" fit-margin-left="0" fit-margin-right="0" fit-margin-bottom="0" inkscape:window-width="1656" inkscape:window-height="998" inkscape:window-x="24" inkscape:window-y="25" inkscape:window-maximized="1"/>
  <metadata id="metadata6044">
    <rdf:RDF>
      <cc:Work rdf:about="">
        <dc:format>image/svg+xml</dc:format>
        <dc:type rdf:resource="http://purl.org/dc/dcmitype/StillImage"/>
        <dc:title/>
      </cc:Work>
    </rdf:RDF>
  </metadata>
  <g inkscape:label="Layer 1" inkscape:groupmode="layer" id="layer1" transform="translate(-180.35714,-224.85549)">
    <g style="display:inline;enable-background:new" id="g5876" transform="translate(-565.64286,-258.14451)">
      <path inkscape:connector-curvature="0" id="rect4908" d="m 778.375,485.15625 c -3.44527,0 -6.21875,2.77348 -6.21875,6.21875 0,3.44527 2.77348,6.21875 6.21875,6.21875 l 6.625,0 0,26.40625 -37,85 c 0,6.094 5.22872,15.04318 11,17 15.92264,5.39876 31.82389,7 49.5,7 17.67611,0 33.57736,-1.60124 49.5,-7 5.77128,-1.95682 11,-10.906 11,-17 l -37,-85 0,-26.40625 5.9375,0 c 3.44527,0 6.21875,-2.77348 6.21875,-6.21875 0,-3.44527 -2.77348,-6.21875 -6.21875,-6.21875 l -59.5625,0 z" style="color:#000000;fill:url(#linearGradient5843);fill-opacity:1;fill-rule:nonzero;stroke:#2c5aa0;stroke-width:4;marker:none;visibility:visible;display:inline;overflow:visible;enable-background:accumulate"/>
      <path inkscape:connector-curvature="0" id="path4923" d="m 768.5,566.75 c -6.37532,14.44974 -12.6843,28.93079 -18.40625,43.53125 0.94836,8.91781 9.0387,15.66933 17.78125,16.21875 28.45317,6.62892 58.9097,6.24403 87.125,-1.5625 9.28989,-2.4804 15.43244,-14.60025 8.90625,-22.6875 -5.12418,-11.84369 -10.32763,-23.66825 -15.5,-35.5 l -79.90625,0 z" style="opacity:1;color:#000000;fill:url(#linearGradient5851);fill-opacity:1;fill-rule:nonzero;stroke:none;stroke-width:0.99999994000000003;marker:none;visibility:visible;display:inline;overflow:visible;enable-background:accumulate"/>
      <path sodipodi:nodetypes="csccc" inkscape:connector-curvature="0" id="path4920" d="m 817.8371,522.45452 c 0,0 -15.31989,2.53848 -22.8635,6.67516 -5.63763,3.09149 -19.75845,33.43444 -34.39024,58.52285 7.25456,-18.96446 26.24521,-50.97061 27.86347,-64.25649 9.27478,0.88927 13.24916,-0.50207 29.39027,-0.94152 z" style="fill:#c2d7f7;fill-opacity:1;stroke:none"/>
      <path sodipodi:nodetypes="cscssc" inkscape:connector-curvature="0" id="path4932" d="m 795.61314,494.435 c 20.08941,1.33744 35.41356,0.27719 36.73022,0.27719 1.31665,0 0.52666,3.68664 0.52666,3.68664 0,0 -3.78019,0.7692 -8.78348,0.50587 -5.00329,-0.26333 -7.35493,-0.41233 -13.2383,-0.80386 -2.42243,-0.1612 -7.44604,-0.46083 -15.2351,-3.66584 z" style="fill:#214478;stroke:none"/>
      <path sodipodi:nodetypes="ccccc" inkscape:connector-curvature="0" id="path4934" d="m 861.1722,618.53318 c -5.21396,5.50362 -20.56617,8.40027 -45.47731,9.84859 30.40324,-8.78208 28.81219,-17.95224 9.55893,-23.46282 23.46281,-4.9243 28.96644,-10.71758 25.49046,-24.91113 0.18344,-5.25577 16.1024,25.59924 10.42792,38.52536 z" style="fill:#c64a00;fill-opacity:1;stroke:none;color:#000000;fill-rule:nonzero;stroke-width:1px;marker:none;visibility:visible;display:inline;overflow:visible;enable-background:accumulate"/>
      <path sodipodi:nodetypes="cscc" inkscape:connector-curvature="0" id="path5704" d="m 759.21034,591.59439 c 0,0 -13.32456,27.22846 3.1863,31.57342 16.51087,4.34497 30.1251,4.34497 30.1251,4.34497 -23.15116,-3.94122 -40.04356,-12.05495 -33.3114,-35.91839 z" style="color:#000000;fill:#c64a00;fill-opacity:1;fill-rule:nonzero;stroke:none;stroke-width:1px;marker:none;visibility:visible;display:inline;overflow:visible;enable-background:accumulate"/>
      <path sodipodi:nodetypes="cccc" inkscape:connector-curvature="0" id="path5723" d="m 846.97865,568.13158 c -2.19826,6.0028 -27.4328,5.09472 -43.44966,6.95194 17.25226,0.29439 43.1089,-2.1284 47.2153,2.31731 z" style="color:#000000;fill:#c64a00;fill-opacity:1;fill-rule:nonzero;stroke:none;stroke-width:1px;marker:none;visibility:visible;display:inline;overflow:visible;enable-background:accumulate"/>
      <g transform="translate(1,1)" id="g5801" style="fill:none;stroke:#3771c8">
        <path inkscape:connector-curvature="0" id="path5803" d="m 818.01221,526.99924 30.4305,79.27417" style="fill:none;stroke:#3771c8;stroke-width:1px;stroke-linecap:butt;stroke-linejoin:miter;stroke-opacity:1"/>
        <path inkscape:connector-curvature="0" id="path5805" d="m 812.14585,531.89456 14.97565,0" style="fill:none;stroke:#3771c8;stroke-width:1px;stroke-linecap:butt;stroke-linejoin:miter;stroke-opacity:1"/>
        <path style="fill:none;stroke:#3771c8;stroke-width:1px;stroke-linecap:butt;stroke-linejoin:miter;stroke-opacity:1" d="m 819.14585,551.89456 14.97565,0" id="path5807" inkscape:connector-curvature="0"/>
        <path inkscape:connector-curvature="0" id="path5809" d="m 827.14585,571.89456 14.97565,0" style="fill:none;stroke:#3771c8;stroke-width:1px;stroke-linecap:butt;stroke-linejoin:miter;stroke-opacity:1"/>
        <path style="fill:none;stroke:#3771c8;stroke-width:1px;stroke-linecap:butt;stroke-linejoin:miter;stroke-opacity:1" d="m 835.14585,591.89456 14.97565,0" id="path5811" inkscape:connector-curvature="0"/>
        <path sodipodi:nodetypes="cc" style="fill:none;stroke:#3771c8;stroke-width:1px;stroke-linecap:butt;stroke-linejoin:miter;stroke-opacity:1" d="m 816.14585,541.89456 9.2403,0" id="path5813" inkscape:connector-curvature="0"/>
        <path inkscape:connector-curvature="0" id="path5815" d="m 823.14585,561.89456 9.2403,0" style="fill:none;stroke:#3771c8;stroke-width:1px;stroke-linecap:butt;stroke-linejoin:miter;stroke-opacity:1" sodipodi:nodetypes="cc"/>
        <path sodipodi:nodetypes="cc" style="fill:none;stroke:#3771c8;stroke-width:1px;stroke-linecap:butt;stroke-linejoin:miter;stroke-opacity:1" d="m 830.14585,581.89456 9.2403,0" id="path5817" inkscape:connector-curvature="0"/>
        <path inkscape:connector-curvature="0" id="path5820" d="m 821.14585,536.89456 5.41673,0" style="fill:none;stroke:#3771c8;stroke-width:1px;stroke-linecap:butt;stroke-linejoin:miter;stroke-opacity:1" sodipodi:nodetypes="cc"/>
        <path sodipodi:nodetypes="cc" style="fill:none;stroke:#3771c8;stroke-width:1px;stroke-linecap:butt;stroke-linejoin:miter;stroke-opacity:1" d="m 825.14585,546.89456 5.41673,0" id="path5823" inkscape:connector-curvature="0"/>
        <path sodipodi:nodetypes="cc" style="fill:none;stroke:#3771c8;stroke-width:1px;stroke-linecap:butt;stroke-linejoin:miter;stroke-opacity:1" d="m 829.14585,556.89456 5.41673,0" id="path5825" inkscape:connector-curvature="0"/>
        <path inkscape:connector-curvature="0" id="path5827" d="m 833.14585,566.89456 5.41673,0" style="fill:none;stroke:#3771c8;stroke-width:1px;stroke-linecap:butt;stroke-linejoin:miter;stroke-opacity:1" sodipodi:nodetypes="cc"/>
        <path inkscape:connector-curvature="0" id="path5829" d="m 837.14585,576.89456 5.41673,0" style="fill:none;stroke:#3771c8;stroke-width:1px;stroke-linecap:butt;stroke-linejoin:miter;stroke-opacity:1" sodipodi:nodetypes="cc"/>
        <path sodipodi:nodetypes="cc" style="fill:none;stroke:#3771c8;stroke-width:1px;stroke-linecap:butt;stroke-linejoin:miter;stroke-opacity:1" d="m 841.14585,586.89456 5.41673,0" id="path5831" inkscape:connector-curvature="0"/>
        <path inkscape:connector-curvature="0" id="path5833" d="m 838.14585,601.89456 9.2403,0" style="fill:none;stroke:#3771c8;stroke-width:1px;stroke-linecap:butt;stroke-linejoin:miter;stroke-opacity:1" sodipodi:nodetypes="cc"/>
        <path sodipodi:nodetypes="cc" style="fill:none;stroke:#3771c8;stroke-width:1px;stroke-linecap:butt;stroke-linejoin:miter;stroke-opacity:1" d="m 845.14585,596.89456 5.41673,0" id="path5835" inkscape:connector-curvature="0"/>
      </g>
      <g style="stroke:#d5e5ff" id="g5783">
        <path style="fill:none;stroke:#d5e5ff;stroke-width:1px;stroke-linecap:butt;stroke-linejoin:miter;stroke-opacity:1" d="m 818.01221,526.99924 30.4305,79.27417" id="path5731" inkscape:connector-curvature="0"/>
        <path style="fill:none;stroke:#d5e5ff;stroke-width:1px;stroke-linecap:butt;stroke-linejoin:miter;stroke-opacity:1" d="m 812.14585,531.89456 14.97565,0" id="path5733" inkscape:connector-curvature="0"/>
        <path inkscape:connector-curvature="0" id="path5735" d="m 819.14585,551.89456 14.97565,0" style="fill:none;stroke:#d5e5ff;stroke-width:1px;stroke-linecap:butt;stroke-linejoin:miter;stroke-opacity:1"/>
        <path style="fill:none;stroke:#d5e5ff;stroke-width:1px;stroke-linecap:butt;stroke-linejoin:miter;stroke-opacity:1" d="m 827.14585,571.89456 14.97565,0" id="path5737" inkscape:connector-curvature="0"/>
        <path inkscape:connector-curvature="0" id="path5739" d="m 835.14585,591.89456 14.97565,0" style="fill:none;stroke:#d5e5ff;stroke-width:1px;stroke-linecap:butt;stroke-linejoin:miter;stroke-opacity:1"/>
        <path inkscape:connector-curvature="0" id="path5741" d="m 816.14585,541.89456 9.2403,0" style="fill:none;stroke:#d5e5ff;stroke-width:1px;stroke-linecap:butt;stroke-linejoin:miter;stroke-opacity:1" sodipodi:nodetypes="cc"/>
        <path sodipodi:nodetypes="cc" style="fill:none;stroke:#d5e5ff;stroke-width:1px;stroke-linecap:butt;stroke-linejoin:miter;stroke-opacity:1" d="m 823.14585,561.89456 9.2403,0" id="path5743" inkscape:connector-curvature="0"/>
        <path inkscape:connector-curvature="0" id="path5745" d="m 830.14585,581.89456 9.2403,0" style="fill:none;stroke:#d5e5ff;stroke-width:1px;stroke-linecap:butt;stroke-linejoin:miter;stroke-opacity:1" sodipodi:nodetypes="cc"/>
        <path sodipodi:nodetypes="cc" style="fill:none;stroke:#d5e5ff;stroke-width:1px;stroke-linecap:butt;stroke-linejoin:miter;stroke-opacity:1" d="m 821.14585,536.89456 5.41673,0" id="path5747" inkscape:connector-curvature="0"/>
        <path inkscape:connector-curvature="0" id="path5749" d="m 825.14585,546.89456 5.41673,0" style="fill:none;stroke:#d5e5ff;stroke-width:1px;stroke-linecap:butt;stroke-linejoin:miter;stroke-opacity:1" sodipodi:nodetypes="cc"/>
        <path inkscape:connector-curvature="0" id="path5757" d="m 829.14585,556.89456 5.41673,0" style="fill:none;stroke:#d5e5ff;stroke-width:1px;stroke-linecap:butt;stroke-linejoin:miter;stroke-opacity:1" sodipodi:nodetypes="cc"/>
        <path sodipodi:nodetypes="cc" style="fill:none;stroke:#d5e5ff;stroke-width:1px;stroke-linecap:butt;stroke-linejoin:miter;stroke-opacity:1" d="m 833.14585,566.89456 5.41673,0" id="path5759" inkscape:connector-curvature="0"/>
        <path sodipodi:nodetypes="cc" style="fill:none;stroke:#d5e5ff;stroke-width:1px;stroke-linecap:butt;stroke-linejoin:miter;stroke-opacity:1" d="m 837.14585,576.89456 5.41673,0" id="path5763" inkscape:connector-curvature="0"/>
        <path inkscape:connector-curvature="0" id="path5765" d="m 841.14585,586.89456 5.41673,0" style="fill:none;stroke:#d5e5ff;stroke-width:1px;stroke-linecap:butt;stroke-linejoin:miter;stroke-opacity:1" sodipodi:nodetypes="cc"/>
        <path sodipodi:nodetypes="cc" style="fill:none;stroke:#d5e5ff;stroke-width:1px;stroke-linecap:butt;stroke-linejoin:miter;stroke-opacity:1" d="m 838.14585,601.89456 9.2403,0" id="path5767" inkscape:connector-curvature="0"/>
        <path inkscape:connector-curvature="0" id="path5771" d="m 845.14585,596.89456 5.41673,0" style="fill:none;stroke:#d5e5ff;stroke-width:1px;stroke-linecap:butt;stroke-linejoin:miter;stroke-opacity:1" sodipodi:nodetypes="cc"/>
      </g>
    </g>
  </g>
</svg>