<?xml version="1.0" encoding="UTF-8" standalone="no"?>
<!-- Created with Inkscape (http://www.inkscape.org/) -->
<svg xmlns:dc="http://purl.org/dc/elements/1.1/" xmlns:cc="http://web.resource.org/cc/" xmlns:rdf="http://www.w3.org/1999/02/22-rdf-syntax-ns#" xmlns:svg="http://www.w3.org/2000/svg" xmlns="http://www.w3.org/2000/svg" xmlns:xlink="http://www.w3.org/1999/xlink" xmlns:sodipodi="http://inkscape.sourceforge.net/DTD/sodipodi-0.dtd" xmlns:inkscape="http://www.inkscape.org/namespaces/inkscape" width="128.00000px" height="128.00000px" id="svg2" sodipodi:version="0.32" inkscape:version="0.42" sodipodi:docbase="/home/nicu/Desktop/hats" sodipodi:docname="hat1.svg" inkscape:export-filename="/home/nicu/Desktop/potato_guy.png" inkscape:export-xdpi="90.000000" inkscape:export-ydpi="90.000000">
  <defs id="defs3">
    <linearGradient inkscape:collect="always" id="linearGradient14422">
      <stop style="stop-color:#000000;stop-opacity:1;" offset="0" id="stop14424"/>
      <stop style="stop-color:#000000;stop-opacity:0;" offset="1" id="stop14426"/>
    </linearGradient>
    <linearGradient inkscape:collect="always" id="linearGradient14414">
      <stop style="stop-color:#000000;stop-opacity:1;" offset="0" id="stop14416"/>
      <stop style="stop-color:#000000;stop-opacity:0;" offset="1" id="stop14418"/>
    </linearGradient>
    <linearGradient id="linearGradient2424">
      <stop style="stop-color:#dec164;stop-opacity:1;" offset="0" id="stop2426"/>
      <stop style="stop-color:#d5a864;stop-opacity:1.0000000;" offset="1.0000000" id="stop2428"/>
    </linearGradient>
    <linearGradient inkscape:collect="always" xlink:href="#linearGradient2424" id="linearGradient7610" gradientUnits="userSpaceOnUse" gradientTransform="translate(84.00000,5.000000)" x1="114.00000" y1="112.36218" x2="197.00000" y2="288.36218"/>
    <linearGradient inkscape:collect="always" xlink:href="#linearGradient14414" id="linearGradient14441" gradientUnits="userSpaceOnUse" x1="359.40097" y1="501.27704" x2="392.05878" y2="543.17145"/>
    <linearGradient inkscape:collect="always" xlink:href="#linearGradient14422" id="linearGradient14443" gradientUnits="userSpaceOnUse" x1="408.05783" y1="499.79263" x2="448.46774" y2="546.30530"/>
    <linearGradient id="linearGradient912">
      <stop id="stop913" offset="0.0000000" style="stop-color:#ffffff;stop-opacity:1.0000000;"/>
      <stop id="stop914" offset="1.0000000" style="stop-color:#ffffff;stop-opacity:0.0000000;"/>
    </linearGradient>
    <radialGradient inkscape:collect="always" xlink:href="#linearGradient912" id="radialGradient17463" gradientUnits="userSpaceOnUse" gradientTransform="scale(1.022475,0.978019)" cx="44.699298" cy="42.720970" fx="44.699298" fy="42.720970" r="12.239094"/>
  </defs>
  <sodipodi:namedview id="base" pagecolor="#ffffff" bordercolor="#666666" borderopacity="1.0" inkscape:pageopacity="0.0" inkscape:pageshadow="2" inkscape:zoom="1.0000000" inkscape:cx="64.000000" inkscape:cy="64.000000" inkscape:document-units="px" inkscape:current-layer="layer1" inkscape:window-width="1152" inkscape:window-height="791" inkscape:window-x="0" inkscape:window-y="26" showguides="true" inkscape:guide-bbox="true"/>
  <g inkscape:label="Layer 1" inkscape:groupmode="layer" id="layer1">
    <g id="g10793" transform="matrix(0.829465,0.000000,0.000000,0.829465,-101.1666,-279.9310)">
      <path sodipodi:nodetypes="cccccccccccccccccc" id="path10779" d="M 218.39858,386.87137 C 212.29272,387.22596 210.73914,394.25876 207.67983,398.37137 C 204.76216,403.24325 197.32755,402.21711 195.11733,397.27762 C 192.78113,393.40941 190.12457,387.45287 184.55483,388.65262 C 179.21183,390.43037 178.52153,397.85179 177.21501,402.63119 C 175.52648,406.73331 177.30827,413.27727 174.53144,415.15655 C 166.51668,412.65219 158.26398,408.96671 149.99233,407.18780 C 142.48236,405.07113 134.03127,402.50229 128.03537,408.86548 C 122.90394,414.31899 125.57434,423.21864 131.88108,426.61155 C 145.06332,434.83991 159.45743,438.17082 174.49626,441.44940 C 195.23001,445.34200 215.23067,447.20559 235.59965,440.44744 C 242.10526,438.47857 247.84981,435.10147 254.04304,432.49048 C 262.45225,427.86433 271.52622,421.22300 272.88679,411.05494 C 273.81318,404.43589 268.85205,399.39986 262.55483,399.18387 C 257.04991,398.84734 251.00804,399.46671 246.55483,402.99637 C 240.35476,406.77586 233.84692,410.04170 227.14858,412.84012 C 226.72352,404.68910 226.13602,395.94845 221.61733,388.90262 C 220.82332,387.89353 219.72844,386.98872 218.39858,386.87137 z " style="fill:#b9a165;fill-opacity:1.0000000;fill-rule:evenodd;stroke:none;stroke-width:0.99999952px;stroke-linecap:butt;stroke-linejoin:miter;stroke-opacity:1.0000000"/>
      <path sodipodi:nodetypes="cccccc" id="path10785" d="M 180.12500,392.37500 C 177.70833,399.79167 176.54167,406.33333 175.12500,414.62500 C 175.25000,415.50000 145.00000,405.75000 140.75000,405.12500 C 160.12500,413.37500 153.87500,421.37500 162.25000,426.75000 C 166.12500,430.37500 181.00000,428.75000 182.62500,427.50000 C 180.25000,424.75000 185.75000,394.00000 180.12500,392.37500 z " style="fill:#000000;fill-opacity:0.082352944;fill-rule:evenodd;stroke:none;stroke-width:1.0000000px;stroke-linecap:butt;stroke-linejoin:miter;stroke-opacity:1.0000000"/>
      <path sodipodi:nodetypes="cccccc" id="path10787" d="M 179.49394,394.57881 C 177.07727,401.99548 176.41061,406.28714 174.99394,414.57881 C 175.11894,415.45381 147.36894,406.20381 143.11894,405.57881 C 162.49394,413.82881 154.11894,419.07881 162.49394,424.45381 C 166.36894,428.07881 179.61894,427.57881 181.24394,426.32881 C 178.86894,423.57881 185.11894,396.20381 179.49394,394.57881 z " style="fill:#000000;fill-opacity:0.082352944;fill-rule:evenodd;stroke:none;stroke-width:1.0000000px;stroke-linecap:butt;stroke-linejoin:miter;stroke-opacity:1.0000000"/>
      <path sodipodi:nodetypes="cccc" id="path10789" d="M 245.82171,403.71801 C 262.94254,393.01749 272.99015,402.55727 273.24406,412.64115 C 270.85004,418.40855 270.52359,418.73500 268.45603,420.47610 C 270.30595,407.96194 253.00376,404.91501 245.82171,403.71801 z " style="fill:#000000;fill-opacity:0.082352944;fill-rule:evenodd;stroke:none;stroke-width:1.0000000px;stroke-linecap:butt;stroke-linejoin:miter;stroke-opacity:1.0000000"/>
      <path sodipodi:nodetypes="cccc" id="path10791" d="M 247.88927,402.15208 C 265.01010,391.45156 272.88133,402.40598 273.13524,412.48986 C 270.74122,418.25726 271.72060,417.06025 269.65304,418.80135 C 270.95886,404.87254 256.48596,401.82561 247.88927,402.15208 z " style="fill:#000000;fill-opacity:0.082352944;fill-rule:evenodd;stroke:none;stroke-width:1.0000000px;stroke-linecap:butt;stroke-linejoin:miter;stroke-opacity:1.0000000"/>
      <path id="path10562" d="M 218.53125,386.21875 C 212.42539,386.57334 210.87181,393.60614 207.81250,397.71875 C 204.89483,402.59063 197.46022,401.56449 195.25000,396.62500 C 192.91380,392.75679 190.25724,386.80025 184.68750,388.00000 C 179.34450,389.77775 178.27527,396.25185 176.96875,401.03125 C 175.28022,405.13337 176.68308,412.62072 173.90625,414.50000 C 165.89149,411.99564 158.39665,407.93516 150.12500,406.15625 C 142.61503,404.03958 133.02715,402.41806 127.03125,408.78125 C 121.89982,414.23476 124.38076,423.51334 130.68750,426.90625 C 143.86974,435.13461 159.21117,439.03392 174.25000,442.31250 C 194.98375,446.20510 217.06852,448.25815 237.43750,441.50000 C 243.94311,439.53113 249.11927,435.01724 255.31250,432.40625 C 263.72171,427.78010 272.79568,420.94931 274.15625,410.78125 C 275.08264,404.16220 268.98472,398.74724 262.68750,398.53125 C 257.18258,398.19472 251.14071,398.81409 246.68750,402.34375 C 240.48743,406.12324 233.97959,409.38908 227.28125,412.18750 C 226.85619,404.03648 226.26869,395.29583 221.75000,388.25000 C 220.95599,387.24091 219.86111,386.33610 218.53125,386.21875 z M 217.31250,388.21875 C 224.13660,389.15205 223.39978,397.57110 224.71875,403.09375 C 224.70992,407.09717 228.28944,420.56239 223.59375,421.84375 C 208.05707,431.53273 189.73611,432.90551 178.09375,423.87500 C 173.30872,422.64723 177.26915,406.30066 177.93750,401.25000 C 179.26034,396.72924 179.47775,390.64316 184.93750,389.56250 C 190.97697,389.54314 192.62473,396.10108 196.25000,399.53125 C 199.96624,403.73962 207.15652,403.08262 209.43750,398.21875 C 211.70265,394.73066 213.01007,389.76530 217.31250,388.21875 z M 219.18750,395.81250 C 216.43011,395.49758 214.40772,398.53068 212.56250,400.28125 C 210.17734,402.96659 208.75860,405.74065 209.28125,410.15625 C 210.20284,406.20401 210.97598,404.62764 212.93750,402.00000 C 214.17522,400.47968 215.83464,398.69081 217.62500,397.90625 C 219.69160,396.97310 221.00086,400.11301 221.56250,401.81250 C 223.25133,402.66709 221.98173,398.34499 221.25000,397.78125 C 220.76265,397.25057 219.90808,395.90999 219.18750,395.81250 z M 259.68750,399.40625 C 265.72999,398.80240 271.64672,402.43593 271.65625,409.25000 C 271.41186,418.91742 264.51165,425.77426 256.84375,430.37500 C 252.34428,432.75000 246.87368,434.00386 242.62500,436.81250 C 225.29682,445.29707 207.08065,445.30728 188.37500,443.12500 C 169.94384,440.47166 150.99249,435.96908 134.46875,427.12500 C 129.06601,424.65440 124.36585,419.43376 126.40625,413.18750 C 128.78987,405.60891 137.94777,404.99577 144.71875,406.56250 C 154.10754,408.30235 162.40756,411.11886 171.18750,414.75000 C 178.60342,414.20213 171.14368,423.33034 177.84375,425.06250 C 189.21547,433.73745 205.35664,432.47818 217.81250,426.90625 C 222.60924,424.66715 228.59904,421.75894 227.34375,415.56250 C 227.74402,410.97671 235.53327,411.19171 238.93750,408.31250 C 243.35503,406.48502 247.42365,402.54104 251.78125,400.71875 C 254.35105,399.98003 257.00985,399.47613 259.68750,399.40625 z " style="fill:#000000;fill-opacity:1.0000000;fill-rule:evenodd;stroke:none;stroke-width:0.99999952px;stroke-linecap:butt;stroke-linejoin:miter;stroke-opacity:1.0000000"/>
      <path sodipodi:nodetypes="cccc" id="path10783" d="M 221.95877,400.75616 C 221.95877,400.50616 219.33377,395.50616 217.83377,396.00616 C 216.33377,396.50616 208.58377,406.63116 209.33377,409.00616 C 210.08377,411.38116 222.33377,410.00616 221.95877,400.75616 z " style="fill:#000000;fill-opacity:0.082352944;fill-rule:evenodd;stroke:none;stroke-width:1.0000000px;stroke-linecap:butt;stroke-linejoin:miter;stroke-opacity:1.0000000"/>
      <path sodipodi:nodetypes="cccc" id="path10781" d="M 220.87500,400.00000 C 220.62500,399.00000 219.12500,395.37500 217.62500,395.87500 C 216.12500,396.37500 209.00000,405.00000 209.75000,407.37500 C 210.50000,409.75000 221.25000,409.25000 220.87500,400.00000 z " style="fill:#000000;fill-opacity:0.082352944;fill-rule:evenodd;stroke:none;stroke-width:1.0000000px;stroke-linecap:butt;stroke-linejoin:miter;stroke-opacity:1.0000000"/>
    </g>
  </g>
  <metadata>
    <rdf:RDF>
      <cc:Work>
        <dc:format>image/svg+xml</dc:format>
        <dc:type rdf:resource="http://purl.org/dc/dcmitype/StillImage"/>
        <cc:license rdf:resource="http://creativecommons.org/licenses/publicdomain/"/>
        <dc:publisher>
          <cc:Agent rdf:about="http://openclipart.org/">
            <dc:title>Open Clip Art Library</dc:title>
          </cc:Agent>
        </dc:publisher>
        <dc:title>Cowboy hat</dc:title>
        <dc:date>2008-02-25T14:05:51</dc:date>
        <dc:description>A cowboy hat</dc:description>
        <dc:source>http://openclipart.org/detail/14836/cowboy-hat-by-nicubunu</dc:source>
        <dc:creator>
          <cc:Agent>
            <dc:title>nicubunu</dc:title>
          </cc:Agent>
        </dc:creator>
        <dc:subject>
          <rdf:Bag>
            <rdf:li>media</rdf:li>
            <rdf:li>clip art</rdf:li>
            <rdf:li>public domain</rdf:li>
            <rdf:li>image</rdf:li>
            <rdf:li>png</rdf:li>
            <rdf:li>svg</rdf:li>
            <rdf:li>clothing</rdf:li>
            <rdf:li>hat</rdf:li>
            <rdf:li>people</rdf:li>
            <rdf:li>cartoon</rdf:li>
            <rdf:li>clothing</rdf:li>
            <rdf:li>hat</rdf:li>
            <rdf:li>people</rdf:li>
            <rdf:li>cartoon</rdf:li>
          </rdf:Bag>
        </dc:subject>
      </cc:Work>
      <cc:License rdf:about="http://creativecommons.org/licenses/publicdomain/">
        <cc:permits rdf:resource="http://creativecommons.org/ns#Reproduction"/>
        <cc:permits rdf:resource="http://creativecommons.org/ns#Distribution"/>
        <cc:permits rdf:resource="http://creativecommons.org/ns#DerivativeWorks"/>
      </cc:License>
    </rdf:RDF>
  </metadata>
</svg>