<?xml version="1.0" encoding="UTF-8" standalone="no"?>
<!-- Created with Inkscape (http://www.inkscape.org/) -->
<svg xmlns:dc="http://purl.org/dc/elements/1.1/" xmlns:cc="http://web.resource.org/cc/" xmlns:rdf="http://www.w3.org/1999/02/22-rdf-syntax-ns#" xmlns:svg="http://www.w3.org/2000/svg" xmlns="http://www.w3.org/2000/svg" xmlns:xlink="http://www.w3.org/1999/xlink" xmlns:sodipodi="http://sodipodi.sourceforge.net/DTD/sodipodi-0.dtd" xmlns:inkscape="http://www.inkscape.org/namespaces/inkscape" width="394.41351" height="554.93317" id="svg2" sodipodi:version="0.32" inkscape:version="0.45" version="1.0" sodipodi:docname="waterdrop.svg" sodipodi:docbase="/home/hernan/Images/vectors" inkscape:output_extension="org.inkscape.output.svg.inkscape" sodipodi:modified="true">
  <defs id="defs4">
    <filter id="filter3537" height="1.5148996" y="-0.25744981" width="1.6155015" x="-0.30775076" inkscape:collect="always">
      <feGaussianBlur id="feGaussianBlur3539" stdDeviation="13.005789" inkscape:collect="always"/>
    </filter>
    <linearGradient y2="551.46198" x2="391.04517" y1="774.14001" x1="400.8725" gradientUnits="userSpaceOnUse" id="linearGradient3179" xlink:href="#linearGradient3159" inkscape:collect="always"/>
    <radialGradient r="197.2068" fy="397.85736" fx="457.12711" cy="397.85736" cx="457.12711" gradientTransform="matrix(-0.629719,-1.4635752,1.4405178,-0.6197981,670.41837,1270.8454)" gradientUnits="userSpaceOnUse" id="radialGradient3177" xlink:href="#linearGradient3558" inkscape:collect="always"/>
    <radialGradient r="197.2068" fy="350.62665" fx="271.67026" cy="350.62665" cx="271.67026" gradientTransform="matrix(0.7324293,0.3957185,-1.2539449,2.3209081,994.48467,-592.56787)" gradientUnits="userSpaceOnUse" id="radialGradient3175" xlink:href="#linearGradient3544" inkscape:collect="always"/>
    <radialGradient gradientUnits="userSpaceOnUse" gradientTransform="matrix(-0.629719,-1.4635752,1.4405178,-0.6197981,192.48242,1261.023)" r="197.2068" fy="397.85736" fx="457.12711" cy="397.85736" cx="457.12711" id="radialGradient3564" xlink:href="#linearGradient3558" inkscape:collect="always"/>
    <radialGradient gradientUnits="userSpaceOnUse" gradientTransform="matrix(0.7324293,0.3957185,-1.2539449,2.3209081,516.54869,-602.39028)" r="197.2068" fy="350.62665" fx="271.67026" cy="350.62665" cx="271.67026" id="radialGradient3554" xlink:href="#linearGradient3544" inkscape:collect="always"/>
    <radialGradient gradientUnits="userSpaceOnUse" gradientTransform="matrix(0.7872671,-0.7655289,0.7308466,0.7516002,-367.56714,511.59327)" r="189.35699" fy="658.84564" fx="481.38342" cy="658.84564" cx="481.38342" id="radialGradient3540" xlink:href="#linearGradient3534" inkscape:collect="always"/>
    <linearGradient id="linearGradient3510">
      <stop id="stop3512" offset="0" style="stop-color:#0041f1;stop-opacity:1;"/>
      <stop id="stop3514" offset="1" style="stop-color:#0041f1;stop-opacity:0.53879309;"/>
    </linearGradient>
    <linearGradient id="linearGradient3534">
      <stop id="stop3536" offset="0" style="stop-color:#ffffff;stop-opacity:1;"/>
      <stop id="stop3538" offset="1" style="stop-color:#ffffff;stop-opacity:0;"/>
    </linearGradient>
    <linearGradient id="linearGradient3544">
      <stop id="stop3546" offset="0" style="stop-color:#ffffff;stop-opacity:1;"/>
      <stop id="stop3548" offset="1" style="stop-color:#ffffff;stop-opacity:0"/>
    </linearGradient>
    <linearGradient id="linearGradient3558">
      <stop id="stop3560" offset="0" style="stop-color:#001651;stop-opacity:0.87068963;"/>
      <stop id="stop3562" offset="1" style="stop-color:#0041f1;stop-opacity:0;"/>
    </linearGradient>
    <linearGradient id="linearGradient3159" inkscape:collect="always">
      <stop id="stop3161" offset="0" style="stop-color:#ffffff;stop-opacity:1;"/>
      <stop id="stop3163" offset="1" style="stop-color:#ffffff;stop-opacity:0;"/>
    </linearGradient>
    <radialGradient inkscape:collect="always" xlink:href="#linearGradient3558" id="radialGradient2439" gradientUnits="userSpaceOnUse" gradientTransform="matrix(-0.629719,-1.4635752,1.4405178,-0.6197981,-1586.328,1134.328)" cx="457.12711" cy="397.85736" fx="457.12711" fy="397.85736" r="197.2068"/>
    <radialGradient inkscape:collect="always" xlink:href="#linearGradient3544" id="radialGradient2442" gradientUnits="userSpaceOnUse" gradientTransform="matrix(0.7324293,0.3957185,-1.2539449,2.3209081,-1262.2617,-729.08523)" cx="271.67026" cy="350.62665" fx="271.67026" fy="350.62665" r="197.2068"/>
    <radialGradient inkscape:collect="always" xlink:href="#linearGradient3558" id="radialGradient2446" gradientUnits="userSpaceOnUse" gradientTransform="matrix(-0.629719,-1.4635752,1.4405178,-0.6197981,-2064.264,1124.5056)" cx="457.12711" cy="397.85736" fx="457.12711" fy="397.85736" r="197.2068"/>
    <radialGradient inkscape:collect="always" xlink:href="#linearGradient3544" id="radialGradient2449" gradientUnits="userSpaceOnUse" gradientTransform="matrix(0.7324293,0.3957185,-1.2539449,2.3209081,-1740.1977,-738.90764)" cx="271.67026" cy="350.62665" fx="271.67026" fy="350.62665" r="197.2068"/>
    <radialGradient inkscape:collect="always" xlink:href="#linearGradient3534" id="radialGradient2452" gradientUnits="userSpaceOnUse" gradientTransform="matrix(0.7872671,-0.7655289,0.7308466,0.7516002,-2624.3135,375.07591)" cx="481.38342" cy="658.84564" fx="481.38342" fy="658.84564" r="189.35699"/>
    <radialGradient inkscape:collect="always" xlink:href="#linearGradient3534" id="radialGradient2469" gradientUnits="userSpaceOnUse" gradientTransform="matrix(0.7872671,-0.7655289,0.7308466,0.7516002,-2624.3135,375.07591)" cx="481.38342" cy="658.84564" fx="481.38342" fy="658.84564" r="189.35699"/>
    <radialGradient inkscape:collect="always" xlink:href="#linearGradient3544" id="radialGradient2471" gradientUnits="userSpaceOnUse" gradientTransform="matrix(0.7324293,0.3957185,-1.2539449,2.3209081,-1740.1977,-738.90764)" cx="271.67026" cy="350.62665" fx="271.67026" fy="350.62665" r="197.2068"/>
    <radialGradient inkscape:collect="always" xlink:href="#linearGradient3558" id="radialGradient2473" gradientUnits="userSpaceOnUse" gradientTransform="matrix(-0.629719,-1.4635752,1.4405178,-0.6197981,-2064.264,1124.5056)" cx="457.12711" cy="397.85736" fx="457.12711" fy="397.85736" r="197.2068"/>
    <radialGradient inkscape:collect="always" xlink:href="#linearGradient3544" id="radialGradient2475" gradientUnits="userSpaceOnUse" gradientTransform="matrix(0.7324293,0.3957185,-1.2539449,2.3209081,-1262.2617,-729.08523)" cx="271.67026" cy="350.62665" fx="271.67026" fy="350.62665" r="197.2068"/>
    <radialGradient inkscape:collect="always" xlink:href="#linearGradient3558" id="radialGradient2477" gradientUnits="userSpaceOnUse" gradientTransform="matrix(-0.629719,-1.4635752,1.4405178,-0.6197981,-1586.328,1134.328)" cx="457.12711" cy="397.85736" fx="457.12711" fy="397.85736" r="197.2068"/>
    <linearGradient inkscape:collect="always" xlink:href="#linearGradient3159" id="linearGradient2479" gradientUnits="userSpaceOnUse" x1="400.8725" y1="774.14001" x2="391.04517" y2="551.46198"/>
  </defs>
  <sodipodi:namedview id="base" pagecolor="#ffffff" bordercolor="#666666" borderopacity="1.0" gridtolerance="10000" guidetolerance="10" objecttolerance="10" inkscape:pageopacity="0.0" inkscape:pageshadow="2" inkscape:zoom="0.175" inkscape:cx="-1123.87" inkscape:cy="803.13252" inkscape:document-units="px" inkscape:current-layer="layer1" inkscape:window-width="1680" inkscape:window-height="968" inkscape:window-x="0" inkscape:window-y="27"/>
  <metadata id="metadata7">
    <rdf:RDF>
      <cc:Work rdf:about="">
        <dc:format>image/svg+xml</dc:format>
        <dc:type rdf:resource="http://purl.org/dc/dcmitype/StillImage"/>
        <dc:description/>
        <cc:license rdf:resource="http://creativecommons.org/licenses/publicdomain/"/>
      </cc:Work>
      <cc:License rdf:about="http://web.resource.org/cc/PublicDomain">
        <cc:permits rdf:resource="http://web.resource.org/cc/Reproduction"/>
        <cc:permits rdf:resource="http://web.resource.org/cc/Distribution"/>
        <cc:permits rdf:resource="http://web.resource.org/cc/DerivativeWorks"/>
      </cc:License>
    </rdf:RDF>
  </metadata>
  <g inkscape:label="Layer 1" inkscape:groupmode="layer" id="layer1" transform="translate(-162.39657,-231.41298)">
    <g id="g2462" transform="translate(2262.8571,200)">
      <path sodipodi:nodetypes="csscc" id="path2530" d="M -1706.047,394.50758 C -1706.047,500.40245 -1794.3882,586.34612 -1903.2373,586.34612 C -2012.0863,586.34612 -2102.4414,500.3833 -2100.4275,394.50758 C -2097.7517,252.48837 -1989.3414,194.6414 -1903.2373,31.41298 C -1811.7814,189.28965 -1706.047,288.61269 -1706.047,394.50758 z " style="opacity:0.69855071;color:#000000;fill:#0041f1;fill-opacity:0.52601157;fill-rule:evenodd;stroke:none;stroke-width:3;stroke-linecap:butt;stroke-linejoin:miter;marker:none;marker-start:none;marker-mid:none;marker-end:none;stroke-miterlimit:4;stroke-dashoffset:0;stroke-opacity:1;visibility:visible;display:inline;overflow:visible"/>
      <path sodipodi:nodetypes="csscc" id="path3520" d="M -1712.855,394.06256 C -1712.855,495.74217 -1797.6798,578.2649 -1902.1961,578.2649 C -2006.7125,578.2649 -2093.471,495.72389 -2091.5373,394.06256 C -2088.968,257.69637 -1984.8728,202.15193 -1902.1961,45.42084 C -1814.3807,197.01323 -1712.855,292.38275 -1712.855,394.06256 z " style="opacity:0.69855071;color:#000000;fill:url(#radialGradient2469);fill-opacity:1;fill-rule:evenodd;stroke:none;stroke-width:3;stroke-linecap:butt;stroke-linejoin:miter;marker:none;marker-start:none;marker-mid:none;marker-end:none;stroke-miterlimit:4;stroke-dashoffset:0;stroke-opacity:1;visibility:visible;display:inline;overflow:visible"/>
      <path sodipodi:nodetypes="csscc" id="path3542" d="M -1716.1485,390.12145 C -1716.1485,490.59207 -1799.9646,572.13345 -1903.2381,572.13345 C -2006.5116,572.13345 -2092.2384,490.5739 -2090.3277,390.12145 C -2087.7889,255.3769 -1984.9317,200.49302 -1903.2381,45.62565 C -1847.136,545.23487 -1716.1485,289.65082 -1716.1485,390.12145 z " style="opacity:0.69855071;color:#000000;fill:url(#radialGradient2471);fill-opacity:1;fill-rule:evenodd;stroke:none;stroke-width:3;stroke-linecap:butt;stroke-linejoin:miter;marker:none;marker-start:none;marker-mid:none;marker-end:none;stroke-miterlimit:4;stroke-dashoffset:0;stroke-opacity:1;visibility:visible;display:inline;overflow:visible"/>
      <path sodipodi:nodetypes="csscc" id="path3556" d="M -1706.047,394.50758 C -1706.047,500.40245 -1794.3882,586.34612 -1903.2373,586.34612 C -2012.0863,586.34612 -2102.4414,500.3833 -2100.4275,394.50758 C -2097.7517,252.48837 -1989.3414,194.6414 -1903.2373,31.41298 C -1811.7814,189.28965 -1706.047,288.61269 -1706.047,394.50758 z " style="opacity:0.69855071;color:#000000;fill:url(#radialGradient2473);fill-opacity:1;fill-rule:evenodd;stroke:none;stroke-width:3;stroke-linecap:butt;stroke-linejoin:miter;marker:none;marker-start:none;marker-mid:none;marker-end:none;stroke-miterlimit:4;stroke-dashoffset:0;stroke-opacity:1;visibility:visible;display:inline;overflow:visible"/>
      <path transform="matrix(0.4170185,-0.4923485,0.4851722,0.4172354,-2440.769,431.47041)" d="M 735.71429 328.327 A 55 35 0 1 1  625.71429,328.327 A 55 35 0 1 1  735.71429 328.327 z" sodipodi:ry="35" sodipodi:rx="55" sodipodi:cy="328.327" sodipodi:cx="680.71429" id="path3541" style="opacity:0.82318845;color:#000000;fill:#ffffff;fill-opacity:0.80057804;fill-rule:evenodd;stroke:none;stroke-width:3;stroke-linecap:butt;stroke-linejoin:miter;marker:none;marker-start:none;marker-mid:none;marker-end:none;stroke-miterlimit:4;stroke-dasharray:none;stroke-dashoffset:0;stroke-opacity:1;visibility:visible;display:inline;overflow:visible;filter:url(#filter3537)" sodipodi:type="arc"/>
    </g>
  </g>
</svg>