<?xml version="1.0" encoding="UTF-8" standalone="no"?>
<!-- Created with Inkscape (http://www.inkscape.org/) -->
<svg xmlns:dc="http://purl.org/dc/elements/1.1/" xmlns:cc="http://web.resource.org/cc/" xmlns:rdf="http://www.w3.org/1999/02/22-rdf-syntax-ns#" xmlns:svg="http://www.w3.org/2000/svg" xmlns="http://www.w3.org/2000/svg" xmlns:sodipodi="http://sodipodi.sourceforge.net/DTD/sodipodi-0.dtd" xmlns:inkscape="http://www.inkscape.org/namespaces/inkscape" sodipodi:docname="lopata.svg" sodipodi:docbase="C:\Documents and Settings\Im\Plocha\11.Naradi a nastroje" inkscape:version="0.44.1" sodipodi:version="0.32" id="svg2095" height="502.85715" width="440" version="1.0">
  <defs id="defs3"/>
  <sodipodi:namedview inkscape:window-y="0" inkscape:window-x="0" inkscape:window-height="693" inkscape:window-width="1016" inkscape:current-layer="layer1" inkscape:document-units="px" inkscape:cy="548.40515" inkscape:cx="455.82461" inkscape:zoom="0.7" inkscape:pageshadow="2" inkscape:pageopacity="0.0" borderopacity="1.0" bordercolor="#666666" pagecolor="#ffffff" id="base"/>
  <metadata id="metadata4">
    <rdf:RDF>
      <cc:Work rdf:about="">
        <dc:format>image/svg+xml</dc:format>
        <dc:type rdf:resource="http://purl.org/dc/dcmitype/StillImage"/>
        <cc:license rdf:resource="http://web.resource.org/cc/PublicDomain"/>
        <dc:title>lopata</dc:title>
        <dc:creator>
          <cc:Agent>
            <dc:title/>
          </cc:Agent>
        </dc:creator>
        <dc:publisher>
          <cc:Agent>
            <dc:title>ZS a MS Machovo nam.(</dc:title>
          </cc:Agent>
        </dc:publisher>
        <dc:language>cz</dc:language>
        <dc:subject>
          <rdf:Bag>
            <rdf:li>lopata</rdf:li>
            <rdf:li>shovel</rdf:li>
          </rdf:Bag>
        </dc:subject>
      </cc:Work>
      <cc:License rdf:about="http://web.resource.org/cc/PublicDomain">
        <cc:permits rdf:resource="http://web.resource.org/cc/Reproduction"/>
        <cc:permits rdf:resource="http://web.resource.org/cc/Distribution"/>
        <cc:permits rdf:resource="http://web.resource.org/cc/DerivativeWorks"/>
      </cc:License>
    </rdf:RDF>
  </metadata>
  <g id="layer1" inkscape:groupmode="layer" inkscape:label="Layer 1" transform="translate(-196.4286,-263.0764)">
    <g id="g4568">
      <path id="path4562" d="M 196.42864,514.50498 L 196.42864,263.07641 L 416.42864,263.07641 L 636.42864,263.07641 L 636.42864,514.50498 L 636.42864,765.93356 L 416.42864,765.93356 L 196.42864,765.93356 L 196.42864,514.50498 z " style="fill:#fdfdfd"/>
      <path id="path4560" d="M 269.88769,649.27781 C 246.53683,643.00699 238.10606,639.61239 234.50123,635.02968 C 227.88815,626.62268 221.38006,571.26546 225.96424,562.41483 C 228.75804,557.02087 301.46174,505.92527 329.78235,489.45225 L 339.0569,484.05761 L 356.08453,497.5863 C 375.30089,512.85402 382.83111,514.34885 395.81056,505.47238 C 400.34853,502.36891 415.54209,491.81122 429.57402,482.01084 C 443.60596,472.21044 468.99124,455.10429 485.98577,443.99719 C 527.19492,417.06412 561.83065,392.23843 571.36433,382.80081 C 583.50937,370.77814 601.45722,374.12905 601.45722,388.41926 C 601.45722,394.7102 599.19858,396.70609 568.6595,417.40183 C 557.68013,424.84232 528.80081,446.31747 504.48323,465.12438 C 480.16564,483.93131 451.28475,505.2044 440.30349,512.39791 C 429.32221,519.59145 418.73313,527.12739 416.77219,529.14449 C 410.20901,535.89559 412.78347,545.28603 424.61595,557.75487 C 430.89097,564.36735 435.93315,571.14546 435.82078,572.8173 C 435.64272,575.46704 365.28035,628.33187 332.95541,650.1024 C 318.20151,660.039 309.53766,659.92572 269.88769,649.27781 z " style="fill:#a89055"/>
      <path id="path4558" d="M 274.62002,651.72145 C 257.12528,647.11121 240.85628,641.66338 238.46668,639.61514 C 232.55384,634.54699 229.54026,621.21062 227.24029,589.93356 C 225.75201,569.69466 226.20869,562.60201 229.19713,559.54195 C 234.15762,554.46257 304.37441,505.79759 324.86444,493.23803 L 340.3669,483.73565 L 357.64668,497.86318 C 382.23143,517.96308 383.49099,517.73242 428.09848,484.96213 C 437.98092,477.70213 447.18839,471.76213 448.55954,471.76213 C 452.26872,471.76213 463.00511,487.23368 461.55056,490.48269 C 460.85932,492.02669 450.48119,499.87812 438.48804,507.93029 C 405.96495,529.76625 404.38263,537.33754 427.30522,561.43918 L 437.26973,571.91624 L 401.19463,599.15347 C 381.35333,614.13393 357.85409,632.14062 348.97409,639.1683 C 328.47974,655.38766 319.83016,660.36267 312.37596,660.21863 C 309.10493,660.15542 292.11476,656.3317 274.62002,651.72145 z " style="fill:#2a292b"/>
      <path id="path4556" d="M 272.99808,647.71016 C 234.02048,637.65387 234.16016,637.82962 232.3214,596.52612 C 230.92148,565.08009 231.22491,562.2514 236.17261,560.624 C 239.36402,559.57431 242.01164,560.06128 242.69717,561.82407 C 244.26442,565.85414 250.69338,565.56555 254.84399,561.27882 C 256.71418,559.3473 260.83581,558.34784 264.00316,559.0578 C 267.17051,559.76774 269.76197,559.15201 269.76197,557.68948 C 269.76197,553.43847 263.68262,551.39587 260.11972,554.44977 C 256.12181,557.87657 242.32448,558.20654 244.76852,554.81693 C 248.56469,549.55207 305.69829,512.08399 308.03927,513.32411 C 309.41075,514.05064 309.75886,520.24681 308.81284,527.09339 C 306.79835,541.67272 311.03286,544.82971 324.49722,538.7867 C 336.46524,533.41528 357.76197,517.18886 357.76197,513.4416 C 357.76197,511.6894 355.12197,508.20792 351.89531,505.70498 C 348.66864,503.20205 346.02864,500.06646 346.02864,498.73702 C 346.02864,497.40758 351.16029,500.29368 357.4323,505.15058 C 363.70431,510.00748 372.94431,514.75475 377.96563,515.70008 C 382.98695,516.64537 387.09531,517.962 387.09531,518.6259 C 387.09531,522.56709 361.54691,544.80741 339.36151,560.17897 C 314.42446,577.45704 308.84933,585.04023 319.75951,586.84119 C 326.02228,587.87499 348.3769,570.85933 349.49925,564.20422 C 350.65788,557.33403 405.14735,519.08292 409.03209,522.41272 C 411.75109,524.74328 406.88256,534.21605 403.53214,533.11404 C 401.59701,532.47755 396.77708,534.95923 392.82118,538.6289 L 385.62864,545.30101 L 392.96197,543.38654 C 396.99531,542.33358 401.94531,540.94056 403.96197,540.29095 C 405.97864,539.64133 407.62864,540.24863 407.62864,541.64046 C 407.62864,543.03232 412.23052,550.03255 417.85504,557.19655 C 430.1135,572.81027 430.8059,571.59134 393.54666,599.9907 C 379.93961,610.36213 358.39196,627.0507 345.66299,637.07642 C 318.39544,658.55314 316.24481,658.86788 272.99808,647.71016 z M 304.35497,547.49443 C 305.19115,545.34423 303.0962,544.9596 297.1824,546.17759 C 286.57778,548.36168 286.25672,548.63822 288.50231,553.65412 C 290.16,557.35689 291.07944,557.41492 296.77059,554.17596 C 300.29234,552.17165 303.70531,549.16497 304.35497,547.49443 z " style="fill:#121114"/>
    </g>
  </g>
</svg>